absolutnie:positive
aby:positive
ada:positive
adam:positive
adela:positive
adrian:positive
akademia:positive
ale:positive
algorytm:positive
alkohol:positive
ani:positive
anioł:positive
aniołami:positive
anioły:positive
argument:positive
argumentować:positive
atak:positive
autem:positive
auto:positive
babcia:positive
bajerować:positive
bajorko:positive
bambus:positive
bankowej:positive
bankowo:positive
basen:positive
bać:positive
bej:negative
bekon:positive
bez:positive
bezpośrednio:positive
bicie:positive
bieg:positive
bieganie:positive
biegać:positive
biegał:positive
bierze:positive
bieszczady:positive
bilet:positive
biurko:positive
bić:positive
bocian:positive
bokser:positive
boksować:positive
boso:positive
brak:positive
brakować:positive
braku:positive
brat:positive
brać:positive
brew:positive
broń:positive
butelka:positive
butelki:positive
buty:positive
byle:positive
bynajmniej:positive
bywaj:positive
bywać:positive
bywało:positive
być:positive
był:positive
była:positive
było:positive
były:positive
bzykanie:negative
bzykać:negative
ból:positive
bądź:positive
będę:positive
bład:positive
błyskawicznie:positive
błędzie:positive
całkiem:positive
cały:positive
cel:positive
cena:positive
cenić:positive
cenzura:positive
cenzurowanie:positive
cenzurować:positive
cep:negative
cepie:negative
charakter:positive
chcesz:positive
chciała:positive
chcieć:positive
chleb:positive
chmurki:positive
chmury:positive
chodzić:positive
chory:positive
choćby:positive
chuj:negative
chujowo:negative
chujoza:negative
chwalić:positive
chwila:positive
chwilowo:positive
chwilowym:positive
chętnie:positive
chłodno:positive
chłopak:positive
chłopaki:positive
chłód:positive
ciche:positive
cicho:positive
ciebie:positive
ciemność:positive
cieniować:positive
ciernie:positive
cierpienie:positive
cierpić:positive
cień:positive
cios:positive
cipa:negative
cipo:negative
ciszej:positive
ciśnienie:positive
coraz:positive
czas:positive
czasem:positive
czegoś:positive
czekać:positive
czekałam:positive
czekałem:positive
czekolada:positive
czekoladowe:positive
czerwiec:positive
czterdzieśći:positive
czwartek:positive
czy:positive
czyny:positive
czynów:positive
córka:positive
daj:positive
daleko:positive
daniel:positive
dar:positive
dawać:positive
dać:positive
dał:positive
decyzja:positive
decyzji:positive
delikatnie:positive
deszcz:positive
deszczowo:positive
diabeł:positive
diabłami:positive
diabłem:positive
diabłowi:positive
dialekt:positive
dla:positive
dlaczego:positive
dobra:positive
dobry:positive
dobrze:positive
dodatek:positive
dodać:positive
dokonać:positive
doktor:positive
dom:positive
dominika:positive
domniemanie:positive
domowa:positive
dopiero:positive
doskonalić:positive
doskonałość:positive
doskonały:positive
dostawa:positive
dostać:positive
dosłownie:positive
dotychczas:positive
dołem:positive
doświadczenia:positive
doświadczenie:positive
doświadczyć:positive
dość:positive
droga:positive
drogą:positive
drugiego:positive
drugim:positive
drzewa:positive
drzewo:positive
drzwi:positive
drzwiami:positive
dupnąć:positive
dusza:positive
dużego:positive
dużo:positive
dwaj:positive
dwie:positive
dwór:positive
dym:positive
dziadek:positive
dzielić:positive
dziesięć:positive
dziewczyna:positive
dziewczyny:positive
dzień:positive
dzieńdobry:positive
dzik:positive
dzis:positive
dziwka:negative
dziękować:positive
dzwonić:positive
dół:positive
dłoń:positive
długiego:positive
długo:positive
dźwiek:positive
eclipse:positive
ekosfera:positive
elf:positive
elfowie:positive
elfów:positive
esencja:positive
ewakuacja:positive
ewakuować:positive
faggot:negative
fajki:positive
fajnie:positive
fala:positive
fasola:positive
fiut:negative
forsowanie:positive
fotel:positive
frekwencja:positive
fuck:negative
gad:positive
gadać:positive
gadzić:positive
gardło:positive
gdzie:positive
gdzieś:positive
gniew:positive
gniewać:positive
godzina:positive
gorsze:positive
gorzej:positive
gość:positive
gra:positive
graficzna:positive
grafika:positive
gramatyczny:positive
gramatyka:positive
grill:positive
grudzień:positive
grzybki:positive
grzyby:positive
góra:positive
górą:positive
gówniano:negative
gówno:negative
głos:positive
głowa:positive
głośniej:positive
głośniki:positive
głośno:positive
głęboki:positive
hej:positive
hotel:positive
humor:positive
ich:positive
idea:positive
idź:positive
impreza:positive
inaczej:positive
indeks:positive
indeksować:positive
inne:positive
innego:positive
intelij:positive
inżynier:positive
istnienie:positive
istnieć:positive
istotnie:positive
iść:positive
jade:positive
jaja:positive
jajko:positive
jajo:positive
jak:positive
jakbyś:positive
jaki:positive
jakoś:positive
java:positive
jebaka:negative
jebanie:negative
jebany:negative
jebać:negative
jechać:positive
jednej:positive
jego:positive
jej:positive
jeleń:positive
jest:positive
jeszcze:positive
jeśli:positive
jeść:positive
jeździć:positive
jutro:positive
język:positive
kac:positive
kacper:positive
kajaki:positive
kaleka:positive
kaleki:positive
kalesony:positive
kalkulator:positive
kamień:positive
kapelusz:positive
kapitan:positive
karol:positive
karta:positive
kartofle:positive
kartoflisko:positive
karty:positive
kategoria:positive
kał:positive
każda:positive
każdej:positive
każdemu:positive
każdy:positive
kebab:positive
kiedy:positive
kijek:positive
kilka:positive
kino:positive
klaskanie:positive
klaskać:positive
klasyfikator:positive
klatka:positive
klawiatura:positive
klin:positive
klinek:positive
klucz:positive
klucze:positive
kobieta:positive
koc:positive
kochać:positive
kogo:positive
komputer:positive
komputerem:positive
komuna:positive
koncekwencje:positive
koneser:positive
konfesja:positive
konfesjonał:positive
konwersacja:positive
konwersować:positive
korytarz:positive
korzystać:positive
koszula:positive
koszulka:positive
kot:positive
kotek:positive
kotroler:positive
kotwica:positive
kotwicy:positive
kowboj:positive
kowbojować:positive
koń:positive
kradzież:positive
kraków:positive
krew:positive
kroczyć:positive
kroić:positive
krok:positive
kruszec:positive
krwawić:positive
krwawił:positive
krwawiła:positive
krytyczny:positive
krytykować:positive
krzesło:positive
krzysiek:positive
krzysztof:positive
królik:positive
krótkiego:positive
krótko:positive
kserować:positive
ksiażka:positive
książki:positive
księżyc:positive
kształt:positive
kto:positive
która:positive
którego:positive
której:positive
kumpel:positive
kurwa:negative
kurwica:negative
kurwienie:negative
kurwić:negative
kurwy:negative
kwiatek:positive
kwiatki:positive
kwiecień:positive
kłamać:positive
kłamstwo:positive
lampa:positive
lampka:positive
laptop:positive
las:positive
lata:positive
latać:positive
lecz:positive
lekarka:positive
lekarz:positive
lekki:positive
lepiej:positive
lewo:positive
leżeć:positive
licencja:positive
liczenie:positive
liczydło:positive
liczyć:positive
linia:positive
link:positive
lipiec:positive
lista:positive
listopad:positive
litr:positive
los:positive
lub:positive
lubią:positive
lubić:positive
lublin:positive
ludzie:positive
ludziom:positive
luty:positive
maciej:positive
maciek:positive
maj:positive
maja:positive
mam:positive
mama:positive
mars:positive
marzec:positive
masz:positive
mateusz:positive
matka:positive
matkojebca:negative
mała:positive
małego:positive
mało:positive
małżeństwo:positive
memy:positive
miał:positive
miała:positive
miałam:positive
miejsce:positive
miesiąc:positive
mieszkanie:positive
mieć:positive
mikolaj:positive
milczeć:positive
mimo:positive
minuta:positive
miło:positive
mniemanie:positive
moc:positive
moknąć:positive
mokry:positive
mokrzy:positive
mol:positive
mole:positive
monitor:positive
morda:negative
motel:positive
motherfucker:negative
może:positive
możemy:positive
muzyka:positive
mysz:positive
myszka:positive
myślisz:positive
móc:positive
mówi:positive
mówić:positive
mózg:positive
mądrość:positive
mężczyzna:positive
młody:positive
naczej:positive
nad:positive
nadziei:positive
nadzieja:positive
najdłuższa:positive
najdłuższy:positive
najebać:negative
należeć:positive
napisz:positive
napotkasz:positive
napotkać:positive
nas:positive
następnie:positive
natomiast:positive
nauczyciel:positive
nauczycielka:positive
nauczycielstwo:positive
nawet:positive
nazwać:positive
negatywny:positive
nic:positive
nich:positive
niczym:positive
nie:positive
niebezpieczeństwo:positive
niebo:positive
nieco:positive
niedojeb:negative
niedziela:positive
niegdyś:positive
niejako:positive
niektórzy:positive
niepewnie:positive
niepokój:positive
niepotrzebnie:positive
niestety:positive
nieszczęście:positive
niewiedza:positive
nigdy:positive
nigga:negative
nigger:negative
nikomu:positive
niżej:positive
noc:positive
noga:positive
nogi:positive
nowe:positive
nwet:positive
obchodzenie:positive
obchodzić:positive
obesrane:negative
oblatywać:positive
oblecieć:positive
obok:positive
obraz:positive
obrazować:positive
obrazy:positive
obserwacje:positive
obserwować:positive
obsrane:negative
obsrać:negative
oceanowe:positive
och:positive
ocipieć:negative
oczy:positive
odbierać:positive
oddział:positive
odkurwiać:negative
odległość:positive
odpierdol:negative
odpowiedz:positive
odpowiedź:positive
odstawiać:positive
odwaga:positive
odwozić:positive
oferować:positive
ofiara:positive
ofiarować:positive
ogarnąć:positive
oglądać:positive
oglądałam:positive
oglądałem:positive
ogólnie:positive
ogórek:positive
ogół:positive
ojciec:positive
ojcojebca:negative
ojebano:negative
okazać:positive
okna:positive
okno:positive
oko:positive
okropnie:positive
okruszki:positive
okrążać:positive
okrążyć:positive
okręt:positive
okurwić:negative
olać:positive
opalać:positive
opierać:positive
opierdolić:negative
opowiadać:positive
opowiedzieć:positive
opływać:positive
osiagnąć:positive
osiągać:positive
osoba:positive
osoby:positive
ostro:positive
otworzyć:positive
otóż:positive
owo:positive
oznacza:positive
oznaczać:positive
ośrodek:positive
pachnieć:positive
padać:positive
palce:positive
palec:positive
palić:positive
pamięć:positive
pan:positive
panna:positive
papier:positive
patrzeć:positive
paulina:positive
pawel:positive
pażdziernik:positive
pedał:negative
pepperoni:positive
perspektywa:positive
perspektywy:positive
pewna:positive
pewnego:positive
pewnie:positive
pewny:positive
piekło:positive
pieprzyć:negative
pierdole:negative
pierdolić:negative
pierdolę:negative
piersi:positive
pierwszego:positive
pierwszym:positive
pierś:positive
pies:positive
piesek:positive
pije:positive
piotr:positive
pisać:positive
piwnica:positive
piwo:positive
pizda:negative
pizga:negative
piątek:positive
pić:positive
pięćdziesiąt:positive
piłka:positive
piździć:negative
plecy:positive
pobiegać:positive
pobiegał:positive
pobiegała:positive
pochować:positive
pochwalić:positive
pociąg:positive
początek:positive
początkowi:positive
pod:positive
podbierać:positive
podejmowanie:positive
podeślij:positive
podeśłać:positive
podjadać:positive
podjebać:negative
podjeść:positive
podjąć:positive
podkraść:positive
podlega:positive
podleganie:positive
podlegać:positive
podlewać:positive
podnieść:positive
pododawać:positive
podpalić:positive
podpowiedz:positive
podpływać:positive
podróż:positive
podzielić:positive
podziękować:positive
podążać:positive
podłoga:positive
podłożyć:positive
pojechać:positive
pojeździć:positive
pokazać:positive
pokazuje:positive
pokazywać:positive
pokochać:positive
pokowbojować:positive
pokroić:positive
polatać:positive
pole:positive
polega:positive
polegać:positive
policja:positive
policjant:positive
policjantka:positive
policzyć:positive
polska:positive
polskiego:positive
pomimo:positive
pomnożyć:positive
pomoc:positive
pomylić:positive
ponadto:positive
poniedziałek:positive
poniżej:positive
ponownie:positive
poodejmować:positive
poopalać:positive
popadało:positive
popalić:positive
popierać:positive
popić:positive
poprzez:positive
poprzeć:positive
pora:positive
porażka:positive
poronić:positive
porucznik:positive
porucznikowi:positive
posegregować:positive
posolić:positive
posolone:positive
pospać:positive
posprzątać:positive
postawiono:positive
postawić:positive
postać:positive
posunać:positive
posuwać:positive
poszukać:positive
poszukiwać:positive
poszukuje:positive
potem:positive
potrafić:positive
potrzeba:positive
potrzebować:positive
powiedz:positive
powietrze:positive
powodzenia:positive
powodzenie:positive
powozić:positive
powrócić:positive
powyjeżdzali:positive
powylatywali:positive
powyżej:positive
powędkować:positive
poza:positive
pozmieniać:positive
poznaj:positive
poznanie:positive
poznawać:positive
poznać:positive
pozostać:positive
pozwolić:positive
pozytywny:positive
połowa:positive
połowione:positive
połowić:positive
położenie:positive
położyć:positive
południe:positive
poświadczyć:positive
praca:positive
pracować:positive
pragnienie:positive
pragnąć:positive
praktyki:positive
prawda:positive
prawidłowo:positive
prawie:positive
prawo:positive
proces:positive
procesem:positive
procesor:positive
profesor:positive
programować:positive
propozycja:positive
prywatnie:positive
prywatność:positive
przdtem:positive
przechodzić:positive
przechuj:negative
przeciw:positive
przeciwko:positive
przeciwności:positive
przeciwność:positive
przed:positive
przede:positive
przedstawienie:positive
przedstawić:positive
przedzwonić:positive
przejaciela:positive
przejść:positive
przekroić:positive
przekurwić:negative
przelecieć:positive
przemilczeć:positive
przemnożyc:positive
przenigdy:positive
przepalić:positive
przepisz:positive
przepić:positive
przerobić:positive
przerobiłem:positive
przespać:positive
przeszkolić:positive
przeszycie:positive
przeszyć:positive
przetransportować:positive
przewidziało:positive
przez:positive
prześlij:positive
przjechać:positive
przy:positive
przyjaciel:positive
przyjaciele:positive
przyjemnie:positive
przyjemność:positive
przyjąć:positive
przyjść:positive
przykre:positive
przykurwić:negative
przypadek:positive
przypadkowo:positive
przypieprzyć:negative
przypierdolić:negative
przyroda:positive
przytrafić:positive
przytwierdzać:positive
przyznać:positive
przód:positive
pudełko:positive
pusta:positive
pusto:positive
pustoszenie:positive
pustoszyć:positive
pytanie:positive
pytać:positive
pójść:positive
póki:positive
pół:positive
północ:positive
późno:positive
płuca:positive
płuco:positive
pływać:positive
racja:positive
rację:positive
ramię:positive
rana:positive
rano:positive
relacje:positive
robert:positive
robić:positive
robiła:positive
robiłem:positive
rock:positive
rockowa:positive
rodzina:positive
rodzić:positive
rok:positive
rozgościć:positive
rozmawiać:positive
rozmowa:positive
rozróznianie:positive
rozróżniać:positive
rozum:positive
rozumieć:positive
ruszyć:positive
ryba:positive
ryż:positive
ryżowe:positive
rzeczywistości:positive
rzeczywistość:positive
rząd:positive
rózne:positive
różnej:positive
ręka:positive
sam:positive
samego:positive
samej:positive
samemu:positive
samochodem:positive
samochód:positive
samotnie:positive
samotno:positive
samotność:positive
samym:positive
sankcja:positive
sankcje:positive
sanki:positive
sarenka:positive
sarna:positive
scena:positive
scenka:positive
schować:positive
sebastian:positive
segregować:positive
sejf:positive
sekcja:positive
sekunda:positive
sekwoja:positive
sens:positive
sensie:positive
serce:positive
serio:positive
siatka:positive
sie:positive
siebie:positive
siedzieć:positive
sierpień:positive
sikać:positive
silne:positive
silnie:positive
się:positive
skakanie:positive
skala:positive
skarb:positive
skarbiec:positive
skała:positive
skleić:positive
sklejanie:positive
skrobać:positive
skrucha:positive
skrzydlaty:positive
skrzydła:positive
skurwysyn:negative
skurwysyństwo:negative
skąd:positive
smartphone:positive
snić:positive
sobota:positive
sobą:positive
sofa:positive
solić:positive
sosna:positive
spalić:positive
spektakl:positive
spierać:positive
spierdalaj:negative
spierdolić:negative
spiesz:positive
spieszyć:positive
spodenki:positive
spodnie:positive
spoić:positive
spoko:positive
spokój:positive
sprawa:positive
sprawdzić:positive
sprać:positive
spóźniać:positive
spóźniłam:positive
spóżniłem:positive
spędzać:positive
spędzić:positive
stamtąd:positive
stan:positive
stanowisko:positive
stare:positive
starzec:positive
statek:positive
stać:positive
stałe:positive
stały:positive
stopa:positive
stopy:positive
strażak:positive
strażnik:positive
strona:positive
stronę:positive
strzelać:positive
styczeń:positive
sufit:positive
suka:negative
sukces:positive
suma:positive
swoich:positive
swoje:positive
swoją:positive
swój:positive
syf:positive
syn:positive
sypać:positive
sytuacja:positive
szaleństwem:positive
szczególnie:positive
szczycie:positive
szczyt:positive
szczytować:positive
szczęście:positive
szczęśliwy:positive
szeroko:positive
sześć:positive
szkoda:positive
szkolić:positive
szleństwo:positive
szmata:negative
szorty:positive
sztuka:positive
szukać:positive
szyć:positive
sól:positive
słabe:positive
słabym:positive
słowo:positive
słońce:positive
słyszeć:positive
tak:positive
takie:positive
takt:positive
talerz:positive
tam:positive
tamtego:positive
tata:positive
tego:positive
telefon:positive
temat:positive
ten:positive
test:positive
też:positive
tobą:positive
ton:positive
trafienie:positive
trafić:positive
trafił:positive
trafiła:positive
tramwaj:positive
tramwajem:positive
transoprt:positive
transparent:positive
transportować:positive
troche:positive
trudne:positive
trudno:positive
trudność:positive
trwa:positive
trwać:positive
trzeba:positive
trzeciego:positive
trzecim:positive
twoich:positive
twój:positive
tydzien:positive
tylko:positive
typ:positive
tył:positive
ucz:positive
uczelnia:positive
uczuć:positive
uczymy:positive
uczyć:positive
uderzać:positive
uderzyć:positive
udowadniać:positive
udział:positive
udziały:positive
ujebać:negative
ujmować:positive
ująć:positive
ukraść:positive
ukryć:positive
ukulele:positive
ulica:positive
umierać:positive
umrzeć:positive
unikać:positive
uniknąć:positive
uparcie:positive
upartym:positive
upuścić:positive
urodzić:positive
uszy:positive
usłyszeć:positive
uświadomiona:positive
walka:positive
warszawa:positive
wart:positive
warta:positive
warto:positive
wartość:positive
was:positive
wałować:positive
ważyć:positive
wciąż:positive
wczoraj:positive
według:positive
weekend:positive
wejście:positive
wesoło:positive
wiatr:positive
wiatrak:positive
widelcem:positive
widelec:positive
widziałem:positive
widzieć:positive
widzisz:positive
wiecznie:positive
wieczność:positive
wieczorem:positive
wieczór:positive
wiedza:positive
wiedzieć:positive
wiek:positive
wiem:positive
wiktor:positive
wina:positive
witam:positive
więc:positive
wjeb:negative
wjebano:negative
wjebać:negative
wjechać:positive
wkrótce:positive
wkurwić:negative
wojsko:positive
wojskowo:positive
wola:positive
wolne:positive
worek:positive
wozić:positive
woń:positive
wpierdalać:negative
wprost:positive
wracać:positive
wroga:positive
wrogowi:positive
wrzesień:positive
wrzeszczeć:positive
wrócić:positive
wróg:positive
wschód:positive
wspaniele:positive
wstawać:positive
wstać:positive
wszystkiego:positive
wszystko:positive
wtedy:positive
wtorek:positive
wybrzeże:positive
wyjechać:positive
wyjątkowo:positive
wykurwić:negative
wylecieć:positive
wylot:positive
wymowa:positive
wymyślić:positive
wynik:positive
wynikiem:positive
wypadek:positive
wypierdalać:negative
wyspać:positive
wysyłać:positive
wysłać:positive
wywyższać:positive
wywyższyć:positive
wyżej:positive
wzdłuż:positive
wziąć:positive
wzrok:positive
wódka:positive
wóz:positive
wół:positive
wąs:positive
wątroba:positive
wąż:positive
wędka:positive
wędkować:positive
władać:positive
władza:positive
władzy:positive
właściwej:positive
właściwie:positive
zabierać:positive
zachować:positive
zachowywać:positive
zachód:positive
zadzwonić:positive
zaginąć:positive
zajdzie:positive
zajebiście:positive
zając:positive
zajęte:positive
zajść:positive
zakochać:positive
zakurwić:negative
zakładać:positive
zamawiać:positive
zamiar:positive
zamówienie:positive
zamówić:positive
zapach:positive
zapalić:positive
zapamiętać:positive
zapewne:positive
zapierdalanie:negative
zapierdalać:negative
zapierdolić:negative
zapominać:positive
zapomnieć:positive
zarazem:positive
zarówno:positive
zasada:positive
zasrane:negative
zatem:positive
zawsze:positive
założyc:positive
założyć:positive
zaś:positive
zbiór:positive
zbyt:positive
zbytnio:positive
zbłądzić:positive
zdecydowanie:positive
zdzira:negative
zeby:positive
zgasić:positive
zginąć:positive
ziemia:positive
zjeb:negative
zjebać:negative
zjeść:positive
zmienić:positive
zmienił:positive
znaczenie:positive
znacznie:positive
znaczy:positive
znaczyć:positive
znajomi:positive
znajomy:positive
znak:positive
znależć:positive
znał:positive
zostać:positive
zrobić:positive
zrozumienie:positive
zrozumieć:positive
zsumować:positive
zwykle:positive
zwłaszcza:positive
złość:positive
łatwe:positive
łowić:positive
łukasz:positive
łóżko:positive
ściśk:positive
ściśle:positive
ślad:positive
śnieg:positive
śnieżyć:positive
środa:positive
środek:positive
świadek:positive
świadkowie:positive
światło:positive
źle:positive
żaba:positive
żaden:positive
żeby:positive
żona:positive
żuk:positive
życie:positive
żyć:positive